{
  "entrypoint": "index.html",
  "shell": "src/view/techUBankView.html",
  "fragments": [
    "src/view/adminCategoriesView.html",
    "src/view/adminProductsView.html",
    "src/view/adminPromosView.html",
    "src/view/adminUsersView.html",
    "src/view/adminView.html",
    "src/view/promotionsView.html",
    "src/view/globalPosView.html",
    "src/view/landingView.html",
    "src/view/loginView.html",
    "src/view/operationView.html",
    "src/view/techUBankView.html"
  ],
  "sources": [
    "src/**/*",
    "images/**/*",
    "keys/**/*"
  ],
  "extraDependencies": [
    "manifest.json",
    "bower_components/**/*.js"
  ],
  "lint": {
    "rules": ["polymer-2"]
  },
  "builds": [
    {
      "preset": "es5-bundled"
    },
    {
      "preset": "es6-bundled"
    },
    {
      "preset": "es6-unbundled"
    }
  ]
}
